<?xml version="1.0" encoding="UTF-8" standalone="no"?>
<svg
   xmlns:dc="http://purl.org/dc/elements/1.1/"
   xmlns:cc="http://creativecommons.org/ns#"
   xmlns:rdf="http://www.w3.org/1999/02/22-rdf-syntax-ns#"
   xmlns:svg="http://www.w3.org/2000/svg"
   xmlns="http://www.w3.org/2000/svg"
   xmlns:sodipodi="http://sodipodi.sourceforge.net/DTD/sodipodi-0.dtd"
   xmlns:inkscape="http://www.inkscape.org/namespaces/inkscape"
   height="64"
   id="Layer_1"
   version="1.1"
   viewBox="0 0 64 64"
   width="64"
   xml:space="preserve"
   sodipodi:docname="select.svg"
   inkscape:version="0.92.4 (5da689c313, 2019-01-14)"><metadata
     id="metadata9"><rdf:RDF><cc:Work
         rdf:about=""><dc:format>image/svg+xml</dc:format><dc:type
           rdf:resource="http://purl.org/dc/dcmitype/StillImage" /><dc:title></dc:title></cc:Work></rdf:RDF></metadata><defs
     id="defs7" /><sodipodi:namedview
     pagecolor="#ffffff"
     bordercolor="#666666"
     borderopacity="1"
     objecttolerance="10"
     gridtolerance="10"
     guidetolerance="10"
     inkscape:pageopacity="0"
     inkscape:pageshadow="2"
     inkscape:window-width="1920"
     inkscape:window-height="1017"
     id="namedview5"
     showgrid="false"
     inkscape:zoom="7.375"
     inkscape:cx="16.114373"
     inkscape:cy="44.891677"
     inkscape:window-x="1912"
     inkscape:window-y="-8"
     inkscape:window-maximized="1"
     inkscape:current-layer="Layer_1" /><path
     d="m 51.03125,28.660714 c 0,-0.160714 0.02679,-0.321428 0.02679,-0.482143 0,-8.705357 -6.9375,-15.75 -15.495536,-15.75 -6.174107,0 -11.477679,3.669643 -13.96875,8.973215 -1.084821,-0.549107 -2.303571,-0.870536 -3.589286,-0.870536 -3.950893,0 -7.245535,2.933036 -7.875,6.763393 C 5.388393,28.928571 2,33.46875 2,38.8125 2,45.535714 7.370536,51 13.986607,51 l 37.071429,-0.01339 C 57.111607,50.986607 62,45.964286 62,39.816964 62,33.669643 57.084821,28.674107 51.03125,28.660714 Z"
     id="path2"
     style="fill:#6194cb;fill-opacity:1;stroke-width:0.13392857"
     inkscape:connector-curvature="0"
     sodipodi:nodetypes="csscscsccsc" /></svg>