<?xml version="1.0" encoding="UTF-8" standalone="no"?>
<svg
   xmlns:dc="http://purl.org/dc/elements/1.1/"
   xmlns:cc="http://creativecommons.org/ns#"
   xmlns:rdf="http://www.w3.org/1999/02/22-rdf-syntax-ns#"
   xmlns:svg="http://www.w3.org/2000/svg"
   xmlns="http://www.w3.org/2000/svg"
   xmlns:sodipodi="http://sodipodi.sourceforge.net/DTD/sodipodi-0.dtd"
   xmlns:inkscape="http://www.inkscape.org/namespaces/inkscape"
   enable-background="new 0 0 30.561 29.375"
   height="29.375px"
   id="Capa_1"
   version="1.1"
   viewBox="0 0 30.561 29.375"
   width="30.561px"
   xml:space="preserve"
   sodipodi:docname="comments.svg"
   inkscape:version="0.92.4 (5da689c313, 2019-01-14)"><metadata
     id="metadata17"><rdf:RDF><cc:Work
         rdf:about=""><dc:format>image/svg+xml</dc:format><dc:type
           rdf:resource="http://purl.org/dc/dcmitype/StillImage" /><dc:title></dc:title></cc:Work></rdf:RDF></metadata><defs
     id="defs15" /><sodipodi:namedview
     pagecolor="#ffffff"
     bordercolor="#666666"
     borderopacity="1"
     objecttolerance="10"
     gridtolerance="10"
     guidetolerance="10"
     inkscape:pageopacity="0"
     inkscape:pageshadow="2"
     inkscape:window-width="1920"
     inkscape:window-height="1017"
     id="namedview13"
     showgrid="false"
     inkscape:zoom="8.0340426"
     inkscape:cx="-7.3283768"
     inkscape:cy="14.6875"
     inkscape:window-x="1912"
     inkscape:window-y="-8"
     inkscape:window-maximized="1"
     inkscape:current-layer="Capa_1" /><path
     id="circle8"
     style="fill:#6288b8;fill-opacity:1"
     d="m 8.375,13.062 c -0.8974627,0 -1.625,0.727537 -1.625,1.625 0,0.897463 0.7275373,1.625 1.625,1.625 0.8974627,0 1.625,-0.727537 1.625,-1.625 0,-0.897463 -0.7275373,-1.625 -1.625,-1.625 z m 6,0 c -0.897463,0 -1.625,0.727537 -1.625,1.625 0,0.897463 0.727537,1.625 1.625,1.625 0.897463,0 1.625,-0.727537 1.625,-1.625 0,-0.897463 -0.727537,-1.625 -1.625,-1.625 z m 6,0 c -0.897463,0 -1.625,0.727537 -1.625,1.625 0,0.897463 0.727537,1.625 1.625,1.625 0.897463,0 1.625,-0.727537 1.625,-1.625 0,-0.897463 -0.727537,-1.625 -1.625,-1.625 z m 9.703,14.366 c -0.489,0.702 -1.289,1.104 -2.192,1.104 -0.435,0 -0.891,-0.092 -1.354,-0.274 L 22.921,26.844 C 20.5,28.482 17.619,29.376 14.688,29.376 6.589,29.376 0,22.787 0,14.688 0,6.589 6.589,0 14.688,0 c 8.098,0 14.687,6.589 14.685,14.688 0,1.707 -0.288,3.371 -0.856,4.957 l 1.799,4.914 c 0.529,1.446 0.079,2.42 -0.238,2.869 z"
     inkscape:connector-curvature="0"
     sodipodi:nodetypes="ssssssssssssssscsccssscccc" /></svg>