<?xml version="1.0" encoding="UTF-8" standalone="no"?>
<!-- Generator: Adobe Illustrator 16.0.0, SVG Export Plug-In . SVG Version: 6.00 Build 0)  -->

<svg
   xmlns:dc="http://purl.org/dc/elements/1.1/"
   xmlns:cc="http://creativecommons.org/ns#"
   xmlns:rdf="http://www.w3.org/1999/02/22-rdf-syntax-ns#"
   xmlns:svg="http://www.w3.org/2000/svg"
   xmlns="http://www.w3.org/2000/svg"
   xmlns:sodipodi="http://sodipodi.sourceforge.net/DTD/sodipodi-0.dtd"
   xmlns:inkscape="http://www.inkscape.org/namespaces/inkscape"
   version="1.1"
   x="0px"
   y="0px"
   width="32.745781"
   height="28.434822"
   viewBox="0 0 32.745781 28.434822"
   enable-background="new 0 0 35 420"
   xml:space="preserve"
   id="svg2"
   inkscape:version="0.92.4 (5da689c313, 2019-01-14)"
   sodipodi:docname="legal.svg"><metadata
     id="metadata545"><rdf:RDF><cc:Work
         rdf:about=""><dc:format>image/svg+xml</dc:format><dc:type
           rdf:resource="http://purl.org/dc/dcmitype/StillImage" /><dc:title></dc:title></cc:Work></rdf:RDF></metadata><defs
     id="defs543" /><sodipodi:namedview
     pagecolor="#ffffff"
     bordercolor="#666666"
     borderopacity="1"
     objecttolerance="10"
     gridtolerance="10"
     guidetolerance="10"
     inkscape:pageopacity="0"
     inkscape:pageshadow="2"
     inkscape:window-width="1920"
     inkscape:window-height="1017"
     id="namedview541"
     showgrid="false"
     inkscape:zoom="1.5893067"
     inkscape:cx="-329.49039"
     inkscape:cy="-116.80795"
     inkscape:window-x="1912"
     inkscape:window-y="-8"
     inkscape:window-maximized="1"
     inkscape:current-layer="blocks"
     fit-margin-top="0"
     fit-margin-left="0"
     fit-margin-right="0"
     fit-margin-bottom="0" /><g
     id="content"
     transform="translate(-1.2531184,-108.00918)"><g
       id="blocks"><path
         id="Texte_légal"
         d="m 17.695,112.384 c 1.162,-0.034 2.084,-0.956 2.119,-2.118 0.034,-1.265 -0.991,-2.29 -2.256,-2.256 -1.162,0.034 -2.084,0.956 -2.119,2.118 -0.034,1.265 0.991,2.29 2.256,2.256 z m 15.857,13.123 h -0.615 l -4.34,-8.406 c 0.615,-0.069 1.23,-0.308 1.777,-0.547 0.82,-0.376 0.991,-1.47 0.376,-2.118 l -0.034,-0.035 c -0.376,-0.375 -0.957,-0.512 -1.47,-0.273 -0.479,0.205 -1.162,0.444 -1.811,0.444 -1.914,0 -2.769,-2.188 -9.808,-2.188 -7.04,0 -7.895,2.188 -9.808,2.188 -0.684,0 -1.333,-0.205 -1.812,-0.444 -0.513,-0.205 -1.094,-0.102 -1.47,0.273 l -0.034,0.035 c -0.615,0.648 -0.444,1.708 0.376,2.118 0.547,0.272 1.162,0.478 1.777,0.547 l -4.34,8.406 H 1.701 c -0.273,0 -0.479,0.239 -0.444,0.513 0.376,2.188 3.145,3.862 6.527,3.862 3.384,0 6.152,-1.674 6.527,-3.862 0.035,-0.273 -0.171,-0.513 -0.444,-0.513 h -0.616 l -4.34,-8.372 c 2.836,-0.24 4.34,-1.675 6.527,-1.675 v 16.609 c -1.196,0 -2.188,0.991 -2.188,2.187 h -2.426 c -0.957,0 -1.948,0.991 -1.948,2.188 h 17.498 c 0,-1.196 -0.991,-2.188 -2.426,-2.188 H 22 c 0,-1.195 -0.991,-2.187 -2.187,-2.187 V 115.46 c 2.187,0 3.69,1.435 6.527,1.675 L 22,125.507 h -0.615 c -0.273,0 -0.479,0.239 -0.445,0.513 0.376,2.188 3.144,3.862 6.527,3.862 3.384,0 6.152,-1.674 6.528,-3.862 0.035,-0.274 -0.17,-0.513 -0.443,-0.513 z m -22.488,0 H 4.503 l 3.281,-6.151 z m 13.124,0 3.28,-6.151 3.281,6.151 z"
         style="fill:#6288b8;fill-opacity:1"
         inkscape:connector-curvature="0" /><g
         id="Fondamental" /></g></g></svg>