<?xml version="1.0" encoding="UTF-8" standalone="no"?>
<!-- Generator: Adobe Illustrator 16.0.0, SVG Export Plug-In . SVG Version: 6.00 Build 0)  -->

<svg
   xmlns:dc="http://purl.org/dc/elements/1.1/"
   xmlns:cc="http://creativecommons.org/ns#"
   xmlns:rdf="http://www.w3.org/1999/02/22-rdf-syntax-ns#"
   xmlns:svg="http://www.w3.org/2000/svg"
   xmlns="http://www.w3.org/2000/svg"
   xmlns:sodipodi="http://sodipodi.sourceforge.net/DTD/sodipodi-0.dtd"
   xmlns:inkscape="http://www.inkscape.org/namespaces/inkscape"
   version="1.1"
   id="svg2"
   inkscape:version="0.92.4 (5da689c313, 2019-01-14)"
   sodipodi:docname="buttons.svg"
   x="0px"
   y="0px"
   width="50px"
   height="194.5px"
   viewBox="0 0 50 194.5"
   enable-background="new 0 0 50 194.5"
   xml:space="preserve"><metadata
     id="metadata15"><rdf:RDF><cc:Work
         rdf:about=""><dc:format>image/svg+xml</dc:format><dc:type
           rdf:resource="http://purl.org/dc/dcmitype/StillImage" /><dc:title></dc:title></cc:Work></rdf:RDF></metadata><defs
     id="defs13" /><sodipodi:namedview
     id="namedview41"
     inkscape:window-x="-8"
     inkscape:pageshadow="2"
     inkscape:object-nodes="true"
     inkscape:window-height="1017"
     inkscape:window-width="1920"
     inkscape:pageopacity="0"
     fit-margin-right="0"
     inkscape:current-layer="svg2"
     fit-margin-bottom="0"
     inkscape:window-y="-8"
     inkscape:window-maximized="1"
     bordercolor="#666666"
     gridtolerance="10"
     guidetolerance="10"
     inkscape:zoom="1.9071647"
     objecttolerance="10"
     inkscape:cx="-184.30141"
     fit-margin-top="0"
     inkscape:cy="57.730505"
     showgrid="false"
     pagecolor="#ffffff"
     fit-margin-left="0"
     borderopacity="1" /><g
     id="previousPage"
     transform="translate(-680.27395,-411.68824)"><path
       id="path3010"
       inkscape:connector-curvature="0"
       fill="#730000"
       d="M730.274,442.688c0.012,13.807-11.173,25.009-24.98,25.02   c-13.807,0.011-25.009-11.173-25.02-24.98c0-0.013,0-0.026,0-0.039c-0.011-13.808,11.173-25.009,24.98-25.021   c13.807-0.012,25.008,11.173,25.02,24.979C730.274,442.662,730.274,442.675,730.274,442.688z"
       style="fill:#e0ecec;fill-opacity:1" /><path
       id="rect3012"
       inkscape:connector-curvature="0"
       fill="#FFFFFF"
       d="M710.364,429.769l-10.179,10.179l-2.741,2.741l2.741,2.74   l10.179,10.179l2.74-2.696l-10.179-10.223l10.179-10.18L710.364,429.769z"
       style="fill:#434e52;fill-opacity:1" /></g><g
     id="nextPage"
     transform="matrix(-1,0,0,1,730.274,-368.76166)"><path
       id="path3789"
       inkscape:connector-curvature="0"
       fill="#730000"
       d="M730.274,466.943c0.011,13.807-11.173,25.009-24.98,25.021   c-13.807,0.011-25.008-11.173-25.02-24.98c0-0.013,0-0.026,0-0.039c-0.012-13.808,11.174-25.009,24.98-25.02   c13.807-0.011,25.009,11.173,25.02,24.98C730.274,466.917,730.274,466.929,730.274,466.943z"
       style="fill:#e0ecec;fill-opacity:1" /><path
       id="path3791"
       inkscape:connector-curvature="0"
       fill="#FFFFFF"
       d="M710.364,454.023l-10.18,10.18l-2.74,2.74l2.74,2.74   l10.18,10.18l2.74-2.697l-10.18-10.223l10.18-10.179L710.364,454.023L710.364,454.023z"
       style="fill:#434e52;fill-opacity:1" /></g><g
     id="g4111"
     transform="translate(2.8800179,0.01224445)"><path
       id="path3973"
       inkscape:connector-curvature="0"
       fill="#730000"
       d="M47.119,165.349   c-0.008,13.808-11.207,24.992-25.014,24.984c-13.796-0.007-24.978-11.188-24.986-24.984c-0.008-13.811,11.179-25.006,24.986-25.017   c13.807-0.008,25.006,11.183,25.014,24.986C47.119,165.33,47.119,165.339,47.119,165.349z"
       style="fill:#e0ecec;fill-opacity:1" /><path
       id="path3985"
       inkscape:connector-curvature="0"
       fill="#FFFFFF"
       d="M22.053,150.168L5.098,167.122l6.524,0.021v13.383h6.213   v-10.052H26.4v10.054h6.215v-13.316l6.523,0.021L22.053,150.168z"
       style="fill:#434e52;fill-opacity:1" /></g></svg>