<?xml version="1.0" encoding="UTF-8" standalone="no"?>
<svg
   xmlns:dc="http://purl.org/dc/elements/1.1/"
   xmlns:cc="http://creativecommons.org/ns#"
   xmlns:rdf="http://www.w3.org/1999/02/22-rdf-syntax-ns#"
   xmlns:svg="http://www.w3.org/2000/svg"
   xmlns="http://www.w3.org/2000/svg"
   xmlns:sodipodi="http://sodipodi.sourceforge.net/DTD/sodipodi-0.dtd"
   xmlns:inkscape="http://www.inkscape.org/namespaces/inkscape"
   enable-background="new 0 0 512 512"
   id="Layer_1"
   version="1.1"
   viewBox="0 0 512 512"
   xml:space="preserve"
   inkscape:version="0.91 r13725"
   sodipodi:docname="comments.svg"><metadata
     id="metadata29"><rdf:RDF><cc:Work
         rdf:about=""><dc:format>image/svg+xml</dc:format><dc:type
           rdf:resource="http://purl.org/dc/dcmitype/StillImage" /></cc:Work></rdf:RDF></metadata><defs
     id="defs27" /><sodipodi:namedview
     pagecolor="#ffffff"
     bordercolor="#666666"
     borderopacity="1"
     objecttolerance="10"
     gridtolerance="10"
     guidetolerance="10"
     inkscape:pageopacity="0"
     inkscape:pageshadow="2"
     inkscape:window-width="1920"
     inkscape:window-height="1017"
     id="namedview25"
     showgrid="false"
     inkscape:zoom="0.4609375"
     inkscape:cx="-465.35593"
     inkscape:cy="256"
     inkscape:window-x="1912"
     inkscape:window-y="-8"
     inkscape:window-maximized="1"
     inkscape:current-layer="g5" /><g
     id="g3"><g
       id="g5"><linearGradient
         gradientUnits="userSpaceOnUse"
         id="SVGID_1_"
         x1="-0.0000027"
         x2="512"
         y1="256"
         y2="256"><stop
           offset="0"
           style="stop-color:#f3ad2e;stop-opacity:1"
           id="stop8" /><stop
           offset="1"
           style="stop-color:#f6b659;stop-opacity:1"
           id="stop10" /></linearGradient><linearGradient
         gradientUnits="userSpaceOnUse"
         id="SVGID_2_"
         x1="42.6666641"
         x2="469.3333435"
         y1="256.0005188"
         y2="256.0005188"><stop
           offset="0"
           style="stop-color:#f6b659;stop-opacity:1"
           id="stop15" /><stop
           offset="1"
           style="stop-color:#f3ad2e;stop-opacity:1"
           id="stop17" /></linearGradient></g><path
       d="M144,155.625061v174.0997314h77.3999329L264,372.3754578l42.5999451-42.6506653H384V155.625061H144z    M197.2138062,261.3418579c-10.1253357,0-18.3333282-8.2085266-18.3333282-18.3327942   c0-10.1264038,8.2079926-18.3343964,18.3333282-18.3343964s18.3333282,8.2079926,18.3333282,18.3343964   C215.5471344,253.1333313,207.3391418,261.3418579,197.2138062,261.3418579z M264,261.3418579   c-10.1248627,0-18.3333893-8.2085266-18.3333893-18.3327942c0-10.1264038,8.2085266-18.3343964,18.3333893-18.3343964   c10.1252747,0,18.3332825,8.2079926,18.3332825,18.3343964C282.3332825,253.1333313,274.1252747,261.3418579,264,261.3418579z    M330.7865906,261.3418579c-10.1252441,0-18.333252-8.2085266-18.333252-18.3327942   c0-10.1264038,8.2080078-18.3343964,18.333252-18.3343964c10.1248169,0,18.3328247,8.2079926,18.3328247,18.3343964   C349.1194153,253.1333313,340.9114075,261.3418579,330.7865906,261.3418579z"
       opacity="0.3"
       id="path21" /><path
       d="M136,147.625061v174.0997314h77.3999329L256,364.3754578l42.5999451-42.6506653H376V147.625061H136z    M189.2138062,253.3418732c-10.1253357,0-18.3333282-8.2085419-18.3333282-18.3328094   c0-10.1264038,8.2079926-18.3343964,18.3333282-18.3343964s18.3333282,8.2079926,18.3333282,18.3343964   C207.5471344,245.1333313,199.3391418,253.3418732,189.2138062,253.3418732z M256,253.3418732   c-10.1248627,0-18.3333893-8.2085419-18.3333893-18.3328094c0-10.1264038,8.2085266-18.3343964,18.3333893-18.3343964   c10.1252747,0,18.3332825,8.2079926,18.3332825,18.3343964C274.3332825,245.1333313,266.1252747,253.3418732,256,253.3418732z    M322.7865906,253.3418732c-10.1252441,0-18.333252-8.2085419-18.333252-18.3328094   c0-10.1264038,8.2080078-18.3343964,18.333252-18.3343964c10.1248169,0,18.3328247,8.2079926,18.3328247,18.3343964   C341.1194153,245.1333313,332.9114075,253.3418732,322.7865906,253.3418732z"
       fill="#FFFFFF"
       id="path23" /></g></svg>